{
    "listTho": [
{
        "thoId": 42,
        "tieudetho": "THỜI GIAN TRÔI RỒI...LIỆU AI CÒN NHỚ AI",
        "tacgia": "Ngọc Anh",
        "urlHinhTho": "https://3.bp.blogspot.com/-m4k9jOulGwk/W6tN9mSAw6I/AAAAAAAAVf8/BnnEV3biu_U1YURdnOyWSJUdHES84CuQgCLcBGAs/s640/cay-bang-chung-kien-bao-ki-niem-vui-buon-thoi-tho-au-146338.jpg",
        "noidungtho": "Con nắng mùa này có nhạt lắm không anh
Mà nỗi nhớ giấu loanh quanh vẫn đậm màu nỗi nhớ?
Tình yêu đâu phải là thứ để duy trì hơi thở,
Mà sao mất đi rồi… Đến thở cũng khó khăn?

Cơn mưa mùa này đã ngưng những mỏng manh
Mà kí ức theo tháng năm vẫn xanh màu kí ức?
Niềm đau trong tận cùng tiềm thức
Vẫn hàng đêm trở về… Làm nhức nhối con tim.

Có bao giờ anh chạm bàn tay lật quá khứ kiếm tìm
Những yêu thương ngọt ngào, những lời anh từng hứa?
Cơn gió chiều qua vô tình không về nữa
Hẹn ước một thời… Anh có nhớ hay quên?
 
Em vẫn từng ngày nhủ lòng để kí ức ngủ yên,
Để những êm đềm về với bình minh xóa đêm đen tăm tối.
Những ngã rẽ cuộc đời đẩy chúng mình xa nhau, lạc lối
Nên dẫu quay về… Cũng đâu thể nào chắp nối lại yêu thương.

Nắng đã theo mùa về hong sợi vấn vương
Mưa cuốn hết những dấu chân trên đoạn đường xa mãi
Những nỗi nhớ, niềm đau dù đã từng tồn tại
Cũng bị mưa làm nhòa, bị nắng chiếu phôi phai.

Thời gian trôi rồi… liệu ai còn nhớ ai?"
     },
{
        "thoId": 41,
        "tieudetho": "TÌNH CỜ",
        "tacgia": "Phong Ba",
        "urlHinhTho": "https://3.bp.blogspot.com/-8LVAXVwvCXw/W6YxuZ0lNRI/AAAAAAAAVeU/KVMLevqYnqsl7ZfS4aPnMKWACZnp9KNOwCLcBGAs/s640/319d43002d9f11e8a637e32082c71af5.jpg",
        "noidungtho": "Tình cờ mình gặp nhau
Trên phố quen xưa đó
Em mỉm cười hỏi nhỏ
Bây giờ anh thế nào
-
Giờ anh sống ra sao
Còn thích dầm mưa lạnh
Còn yêu cỏ 4 cánh
Còn thích nghe nhạc tình

Những thói quen của anh
Đâu dễ gì bỏ được
Anh vẫn hay thổn thức
Vẫn hát nhỏ một mình
-
Rồi em lại hỏi anh
Có còn yêu em nữa
Trái tim đã mở cửa
Đón ai vào hay chưa
_
Anh gượng cười bâng quơ
Rằng không yêu em nữa
Nhưng trái tim quá nhỏ
Chỉ chứa được một người
-
Tình cờ có mưa rơi
Hòa tan cùng nước mắt
Em làm sao biết được
Khoảng trời...
.................... phía sau người !"
     },
{
        "thoId": 40,
        "tieudetho": "BƯỚC VỀ PHÍA ANH",
        "tacgia": "Phong Ba",
        "urlHinhTho": "https://4.bp.blogspot.com/-2MRexKEwAVw/W6YwY4YBzrI/AAAAAAAAVeI/tuSXp3hyolgtWU7E8lsJcPAe2o9XBLS4QCLcBGAs/s640/sunflowers-1655706_960_720.jpg",
        "noidungtho": "Nếu khoảng cách giữa mình là mười bước chân
Em hãy bước về anh một bước nhé !
Để anh có thể
Mạnh dạn hơn _bước chín bước về em !

Nếu em chưa vững tin
Bước một bước thôi ,rồi anh sẽ bước tới
Rồi em sẽ thấy
Bên cạnh anh ,sẽ vơi hết ưu phiền.
 
Những lúc em thấy buồn
Sao không dựa vào vai anh mà thủ thỉ
Cứ giả vờ cứng rắn làm gì nhỉ
Anh cũng thế mà ,anh chẳng dám nói thôi !

Cuộc đời thì ngắn,quãng đường lại dài
Sao không bước cùng nhau cho đỡ mỏi
Em cứ lặng im, còn anh thì chờ đợi
Cứ thế này ,bao giờ sẽ thành đôi .

Khoảng cách giữa mình khoảng mười bước chân thôi
Hãy bước lại gần anh thêm bước nhé !
Anh chỉ mong có thế
Để được chạy về ____
_____________________phía em !"
     },
{
        "thoId": 39,
        "tieudetho": "GIÓ MÙA VỀ",
        "tacgia": "Bảo Bình",
        "urlHinhTho": "https://3.bp.blogspot.com/-_epEQC_egmk/W6YuoXJEfdI/AAAAAAAAVd8/F4F41H3S6rI1h78LMpn3MQeD3gik4QYFgCLcBGAs/s1600/so-in-love_3.jpg",
        "noidungtho": "Chẳng hiểu vì điều gì mà lòng cứ bất an
Ngổn ngang những thứ vẫn còn đang dang dở
Giá lúc này có một người che chở
Để em yên bình ,hé nở nụ cười xinh.

Nhưng em biết giờ đây vẫn 1 mình
Sớm tối đi về lẻ loi ,đơn độc
Vẫn khao khát một vòng tay thật chặt
Để an lòng đối diện với mùa đông .

Hà Nội chiều nay lạnh lắm anh biết ko
Đôi tình nhân họ bên nhau quấn quýt
Em vẫn khăn len xuống phố rồi phóng xe mải miết
Để quên mình cùng da diết chờ mong

Những con người em gặp những chặng đường
Sao chẳng khiến em vui dù chỉ trong khoảnh khắc
Chắc có lẽ đó vẫn chưa phải là lúc
Gặp được người đích thực với em

Về đi anh về mình cùng bước chung đường
Về đi anh đừng để em mỏi mòn trông ngóng
Về bên nhau cùng những đứa con xinh xắn
Để nụ cười em mãi ở trên môi ."
     },
{
        "thoId": 38,
        "tieudetho": "GIÓ MÙA VỀ, CẦN LẮM MỘT NGƯỜI THƯƠNG",
        "tacgia": "Du phong",
        "urlHinhTho": "https://2.bp.blogspot.com/-4O7SPF6CcrE/W6YswmN8qzI/AAAAAAAAVdw/-1g-aGu1A5MjOraTrBjcvrk-647uRVaQQCLcBGAs/s400/9-69bdb.jpg",
        "noidungtho": "Gió mùa về, cần lắm một người thương,
Khoác tay nhau ra ngoài đường tình tứ.
Mình có chọn cô đơn đâu cơ chứ!
Giá có một ai làm mọi thứ cùng mình...

Thu đến rồi, muốn nghe kể chuyện tình,
Rồi lặng thinh trên bờ vai vờ ngủ...
Âu yếm bao nhiêu cũng là không đủ,
Bởi rất lâu rồi quên cảm giác đắm say...
 
Muốn yêu ai cho bớt tủi thân này,
Thủ thỉ suốt ngày chồng chồng vợ vợ...
\"Có chuyện gì cũng về đây, đừng sợ!
Thế giới bỏ mặc em thì kệ họ, theo chồng!\"

Muốn một người gặng hỏi: Có mệt không?
Rồi lặng lẽ ôm vào lòng một cái...
\"Buồn hả em? Khóc đi cho thoải mái,
Gió ngoài kia thổi mãi cũng ngưng rồi!\"

Chán thế này chỉ muốn được yêu thôi!"
     },
{
        "thoId": 37,
        "tieudetho": "NẾU MỘT NGÀY",
        "tacgia": "Lai Ka",
        "urlHinhTho": "https://3.bp.blogspot.com/-zS9CBIfDB4I/W40HEgxZNTI/AAAAAAAAVUk/4w1ClQlBLo4FeLCDYxFovmxwVPL9vXqSACLcBGAs/s640/39948237_10208992922418638_538755848592162816_n.jpg",
        "noidungtho": "Nếu một ngày em nói muốn quên anh
Để bắt đầu cho một tình yêu mới
Anh có buồn không, có chút nào tiếc nuối
Có thấy chút gì nhoi nhói ở trong tim?

Nếu một ngày em nói sẽ lặng im
Thôi nhắn dòng tin, thôi không phiền anh nữa
Liệu anh có buồn, có đứng chờ trước cửa
Có trống trải lòng và có nhớ em không?

Nếu một ngày em nói hết ngóng trông
Hết nhớ mong anh, mở lòng chờ ai đó
Anh có tìm về ôm lấy em bé nhỏ
Nói đừng quên anh và hãy ở bên anh."
     },
{
        "thoId": 36,
        "tieudetho": "NẾU SAU NÀY KHÔNG ĐẾN ĐƯỢC VỚI NHAU!!",
        "tacgia": "ST",
        "urlHinhTho": "https://4.bp.blogspot.com/-XVUOcO0aN58/W40EI_oLY_I/AAAAAAAAVUY/c5-H4SbA0vMkviYBDpamaYmvkUGSnP4bgCLcBGAs/s640/40051507_2246229445607114_3382529411252224000_n.jpg",
        "noidungtho": "Nếu sau này không thể đến với nhau
Anh hãy cố quên,đừng nhớ em nữa nhé!
Có thể sẽ đau nhưng... bởi vì một lẽ
Em không muốn làm bóng dáng kẻ thứ ba...

Nếu sau này ta đành phải cách xa
Anh hãy quên em,xem em là người lạ
Anh hãy yêu thương và thật lòng thật dạ
Với người hiện giờ anh đang gọi \"vợ anh\"!

Nếu có một ngày chẳng đến được với nhau
Anh vẫn sẽ là mối tình đầu em giữ mãi
Anh cứ cất đi,đừng để dành gì lại
Đừng để tủi hờn dâng trong mắt ai kia....
 
Có những con đường rồi cũng sẽ phải chia
Như lá yêu cây thì cũng phải xa lìa đấy
Có thể một ngày mình thấy buồn biết mấy
Nước mắt chia li : kẻ bước, kẻ lại đây...

Nếu có một ngày không thể đến với nhau
Những điều hứa hẹn bỗng chốc thành tan vỡ
Mình đừng trách nhau và cũng đừng than thở
Có lẽ con đường chung bước chỉ đến đây....

Rồi sẽ qua thôi,những ngày buồn như thế
Sẽ phải lãng quên mối tình đầu mình kể
Em biết mà anh : quên là điều không dễ
Nhưng điều cuối cùng em muốn vậy thôi anh!

Anh sẽ có một hạnh phúc khác để dựng xây
Quên đi quá khứ...anh cứ làm như vậy
Lỡ có một ngày vô tình ta nhìn thấy
Thì hãy mỉm cười và ôm chặt ....vợ anh!"
     },
{
        "thoId": 36,
        "tieudetho": "ĐÔI LÚC YẾU LÒNG",
        "tacgia": "Lai Ka",
        "urlHinhTho": "https://4.bp.blogspot.com/-CK7dODjcduc/W4zP5F2JLDI/AAAAAAAAVT4/fbxTgfKqfeEn-vDKE3R9n96cxQfYHIjtgCLcBGAs/s400/40001255_463951447452344_4490989397231009792_n.jpg",
        "noidungtho": "Đôi lúc yếu lòng cũng muốn nhắn dòng tin
\"Em rất nhớ anh, em muốn mình làm lại.\"
Nhưng giữa vòng quay của đất trời mê mải
Đâu còn là gì mà nhắc lại chữ thương.

Đôi lúc yếu lòng em muốn một cái ôm
Từ vòng tay anh ấm nồng như ngày đó
Cuộc đời rộng dài, đôi chân em bé nhỏ
Mải miết theo người nào có đuổi kịp đâu.
 
Đôi lúc yếu lòng em ngồi khóc thật lâu
Nhớ bàn tay anh nhẹ lau dòng nước mắt
Dù lòng còn thương, còn nhớ mong là thật
Biết làm gì hơn khi đã mất nhau rồi.

Đôi lúc yếu lòng em chỉ nhớ anh thôi
Còn anh ở đâu? Nơi nào xa xôi quá
Ngay cả câu chào cũng ngập ngừng, xa lạ
Thì lấy cớ gì để nhắc đã từng yêu."
     },
{
        "thoId": 35,
        "tieudetho": "NGẠI YÊU",
        "tacgia": "Du Phong",
        "urlHinhTho": "https://1.bp.blogspot.com/-wczEniN8GuQ/W4zO1b-EuhI/AAAAAAAAVTw/fzp7HFREuwgcTZqDLggzawpPSsJhWl-4wCLcBGAs/s640/40398673_707700596230470_4420728061595484160_n.jpg",
        "noidungtho": "Hơn một người đã muốn nắm tay em
Từ ngày anh đi tìm bình yên bên tình mới,
Cũng hơn một lần em lắc đầu từ chối
Bởi thật tâm em không thể mở lòng.

Đừng hỏi em còn nhớ đến anh không,
Ký ức về anh chẳng chất chồng như trước.
Cũng chẳng phải em cứng đầu hay nhu nhược,
Chỉ bởi bấy lâu nay em đã bước một mình.

Nên em ngại bắt đầu từ những thứ mới tinh:
Làm quen, hẹn hò, tỏ tình, tìm hiểu...
Sợ thân với một người rồi phải xa, thấy thiếu,
Không muốn đặt niềm tin vào những thứ mơ hồ.

Em chẳng còn nhiều khao khát, mộng mơ,
Ngóng đợi, mong chờ với em xa xỉ lắm!
Sao em phải đưa tay ai nắm,
Khi có thể tự thân mang hơi ấm cho mình?

Em không muốn tốn thời gian cho những cuộc tình,
Kẻ hứa hẹn viển vông, kẻ bông đùa, dối trá.
Mỗi phút giây trong đời em đều quý giá,
Em sẽ nâng niu và sống để vui cười...

Nên ngay lúc này em muốn một mình thôi!"
     },
{
        "thoId": 34,
        "tieudetho": "YÊU THÊM LẦN NỮA",
        "tacgia": "NGỌC ANH",
        "urlHinhTho": "https://1.bp.blogspot.com/-nLHye10vBac/W4y6nFpF-rI/AAAAAAAAVTk/F-rhTfTq-soPC_alMlNiKFnRfMou0zasACLcBGAs/s640/40660341_1505874206180010_790138450476007424_n.jpg",
        "noidungtho": "Mình quay về và yêu tiếp đi anh
Để những kỉ niệm lấp đầy chứ không là một nửa
Bản tình ca anh dừng, em sẽ về hát nữa
Hát cho ngọt đáy lòng và thắm những môi hôn…

Em sẽ lật từng trang, vuốt phẳng nếp gấp buồn
Viết tiếp câu chuyện đôi ta thay cho nửa yêu đầu không trọn
Nhắn tiếp dòng tin xưa, giang đôi vòng tay rộng
Ôm lại những yêu thương cho kí ức lại đầy.

Em sẽ về uống cạn những chén say
Nuốt hết nỗi buồn, lau đôi hàng lệ ướt
Xoa dịu trái tim đã một lần tì vết
Ươm nỗi nhớ tràn đầy để chẳng hóa hư không

Mình sẽ về và yêu tiếp, có được không?
Viết tiếp vần thơ, nối đôi bờ nhung nhớ
Viết tiếp chuyện tình sau một thời lầm lỡ
Buông những dại khờ
Mình sẽ lại yêu thương…"
     },
{
        "thoId": 33,
        "tieudetho": "EM ĐỪNG NHỚ NGƯỜI XƯA",
        "tacgia": "Tiểu Tử HK",
        "urlHinhTho": "https://1.bp.blogspot.com/-GQQ1J9eZGz0/W3VHc3PCdwI/AAAAAAAAU3E/yVpuKP5Zn24gUJ8y5GhTX3VJcDWWh8elwCLcBGAs/s640/minh-goi-nhau-la-nguoi-cu.png",
        "noidungtho": "Em đừng nhớ về tình cũ được không?
Khi mà em đã thành người yêu cũ
Người đến sau anh đau nhiều lắm chứ
Cười sao được khi em nhớ người ta...

Hạnh phúc ấy bây giờ đã bay xa
người yêu em, anh mới là hiện tại
Chuyện đã qua xin em đừng gợi lại
Nhớ chi hoài để nhức nhói tim anh

Anh sẽ không bắt em phải quên nhanh
Vì cũng một thời anh yêu điên dại
Nhưng mình đã hứa bên nhau mãi mãi
Chuyện buồn ấy hãy để lại hôm qua

Thật lòng anh cũng giống như người ta
Đến với em chỉ muốn là duy nhất
Khi quá khứ là những điều đã mất
Thì mình đừng để vụn nát cả tương lai..."
     },
{
        "thoId": 32,
        "tieudetho": "CHUYỆN NỢ DUYÊN",
        "tacgia": "Huân Trần",
        "urlHinhTho": "https://4.bp.blogspot.com/-otCc1BdcPGY/W3U640prxzI/AAAAAAAAU2k/jYCdsi7nBdobUSHbrd6p5b3J1K1EU4hvwCLcBGAs/s640/con-nguoi-ta-gap-nhau-nho-duyen-yeu-nhau-boi-no-va-chia-ly-do-phan-758x506.jpg",
        "noidungtho": "Hẹn anh một trăm năm nữa
Biết đâu quay lại kiếp người
Chúng mình cùng nhau viết tiếp
DUYÊN tình ta lỡ đánh rơi

Kiếp này em không phúc phận
Cùng anh đi hết một đời
Nhưng em chưa từng oán hận
Dẫu mình chẳng thể thành đôi

***

Hẹn em trăm năm sau nữa
Rồi ta sẽ lại tương phùng
YÊU thương thôi không lầm lạc
Con đường mình sẽ đi chung

Kiếp này tình ta ngang trái
Nhưng anh vẫn muốn ngoái đầu
Đủ năm trăm lần nhìn lại
Cho mình hò hẹn kiếp sau!

***

Hẹn nhau trăm năm sau nữa
Khi NỢ nhau đủ kiếp này
Thì ta cùng nhau trả hết
Những gì ta đã trót vay

Hẹn người một trăm năm nữa
Đủ DUYÊN, đủ NỢ, đủ YÊU
Không gì cách chia ta nữa
Nguyện bên nhau mỗi sớm chiều!"
     },
{
        "thoId": 31,
        "tieudetho": "EM...",
        "tacgia": "VA-N",
        "urlHinhTho": "https://1.bp.blogspot.com/-Xbs0Aj_AUAU/W3LAwXr2OwI/AAAAAAAAU1A/1-HTQ424R8ko0JWipfLuRL_pgct1AyGhACLcBGAs/s640/38132259_486469585131377_4624778483199901696_n.jpg",
        "noidungtho": "Em trở về là chính em..
Một cô gái không cần ai thương hại
Chẳng còn tha thiết một bờ vai đáng tin cậy
Để có thể dựa vào trong những ngày bão giông.

Em trở về là chính em..
Đôi tay tự ôm lấy mình trong những đêm quạnh quẽ
Thì ra có những ngày ta bước đi thật khẽ
Mới cảm nhận cuộc đời còn có hai chữ \"bình yên\".

Đã từng có lúc trong đời ta nhớ đến phát điên
Hình dáng của một người ta chưa từng nhìn thấy
Ánh mắt, nụ cười cùng môi hôn nồng cháy
Giờ cũng tan theo mưa gió mịt mù..
 
Em trở về là chính em..
Không váy áo, phấn son
Không chơi vơi trên đôi giày cao gót
Những dòng thơ em từng chăm chút, nắn nót
Giờ cũng thành kỉ niệm những ngày xanh.

Em chẳng còn thấy mình quá đỗi mong manh
Bao lần vấp ngã tay chân đã chai sần dấu vết
Tạm dừng chân cho những ngày dài lê thê, mỏi mệt
Em gìn giữ cho riêng mình những im lặng, chông chênh.

Đôi lúc cần có những giây phút chênh vênh
Để nhận ra không có gì là tất cả."
     },
{
        "thoId": 30,
        "tieudetho": "EM BÂY GIỜ",
        "tacgia": "Laika",
        "urlHinhTho": "https://4.bp.blogspot.com/-Ozh3nWZ394o/W3K1UoJeAWI/AAAAAAAAU00/AppH0z0viwkO1xc4gbh6UgOhkvC9SurVwCLcBGAs/s640/7d0a5b8ec8d76b5c1feb897b8be3d4e0b2dde783.jpg",
        "noidungtho": "Em bây giờ chẳng còn giống ngày xưa
Chẳng còn ngắm mưa rồi nhớ anh điên dại
Chẳng còn hằng đêm đắm mình trong khắc khoải
Chẳng còn đợi chờ, chờ mãi một người đi

Em bây giờ đã thôi không khóc ướt mi
Quên dấu yêu quên những gì đã cũ
Quên đi rồi một bóng hình ấp ủ
Quên người rồi, người cũng giữ nữa đâu
 
Em bây giờ quên hết những đớn đau
Quên một người đã từ lâu vẫn nhớ
Quên một người đã gần như hơi thở
Quên một người đã từng bỏ em đi

Em bây giờ chỉ thích xem ti vi
Thích nấu ăn, thích những gì mới mẻ
Thích cùng bạn bè nói cười vui vẻ
Thích những khoảng trời nhỏ bé không anh."
     },
{
        "thoId": 29,
        "tieudetho": "NẾU ĐƯỢC SỐNG HƠN MỘT LẦN...",
        "tacgia": "Lê Trà My",
        "urlHinhTho": "https://4.bp.blogspot.com/-pDGHEVF6y1s/W3K0rup_NeI/AAAAAAAAU0s/gjcw58LFCso1ya1qdkztWHNvaAEdxEeiwCLcBGAs/s640/38885465_1373870632744957_8399658263657840640_n.jpg",
        "noidungtho": "Nếu được sống hơn một lần... em vẫn ước được anh yêu
Được là người đàn bà cuối cùng anh chọn lựa
Được cùng anh nắm tay đi trong chiều mưa đổ
Được tận tay mình về vỗ những lúc anh say

Nếu được sống hơn một lần ...em sẽ vẫn dang rộng vòng tay
Ôm anh đắm say dù thế giới ngoài kia nghiệt cay trách móc
Dù cuộc sống có hờn ghen hay người đời khen chê,trêu chọc
Nhưng lỡ yêu rồi em sẽ nguyện làm kẻ Ngốc chỉ biết có anh thôi
 
Nếu được sống hơn một lần ...trong mỗi tối đêm thâu
Ngấu nghiến yêu anh như chưa từng yêu ai khác
Dù cuộc sống chẳng vuông tròn chẳng như bản tình ca khớp nhạc
Khi tim đã lỡ nhớ rồi thì xào xạc sẽ khó mà quên

Nếu được sống hơn một lần... thì em ước mãi cạnh bên
Chỉ bên anh ...và không cần một ai thay thế
Đừng cách xa nhau đêm lại sầu nhỏ lệ
Trên mọi lối về
...con bé đã mang trái tim mình
...dù nhỏ bé trao anh.

\"EM NGƯỢC NẮNG,NGƯỢC GIÓ MONG CÓ ANH\""
     },
{
        "thoId": 28,
        "tieudetho": "HẠNH PHÚC GIẢN ĐƠN",
        "tacgia": "Lam Khuê",
        "urlHinhTho": "https://4.bp.blogspot.com/-MqLX06LhFh4/W3KzvDFdusI/AAAAAAAAU0g/OGwSOR5kCMERmXlS6u4nqkSlLwEp_THKgCLcBGAs/s1600/hon-que99.png",
        "noidungtho": "Có những ngày chỉ muốn được về nhà
Ngồi bên mâm cơm ngút khói chiều của mẹ
Nghe ba kể lúa vụ này chắc khá
Nụ cười hiền che giấu những lo toan

Có những ngày muốn bỏ bớt hoang mang
Về những thói đời, lòng người rộng chật
Bỏ hết những hơn thua, bon chen tất bật
Về mái nhà mình làm một đứa trẻ thơ

Có những ngày chẳng còn muốn ước mơ
Chẳng muốn nghĩ về bầu trời xanh đầy khao khát
Chỉ muốn ngược về tuổi thơ gió cát
Ru ấm lòng bằng cổ tích ngày xa

Có những ngày chẳng còn muốn thiết tha
Chốn thị thành phồn hoa đô hội
Chỉ muốn về nhà và nghe mẹ gọi
\"Cơm chín rồi! Dậy ăn cho nóng đi con\""
     },
{
        "thoId": 27,
        "tieudetho": "BUỒN LÀM GÌ, NGHĨ ĐƠN GIẢN THÔI EM",
        "tacgia": "Lê Trà My",
        "urlHinhTho": "https://3.bp.blogspot.com/-vhAUrRQ0bxw/W3Ky67184sI/AAAAAAAAU0Y/5TJHkusWC1oePvswlgWMU8EtPgxrh6E4wCLcBGAs/s1600/38819613_1373871526078201_1527460193464483840_n.jpg",
        "noidungtho": "Em mệt rồi thì hãy ngủ đi em
Cuộc sống bon chen, người thương kẻ ghét
Ai hơn ai thua, thôi xếp vào góc hẹp
Tựa vai anh này, ngủ một giấc thật ngon

Em mệt rồi thì đừng cố cười giòn
Mạnh mẽ làm gì, để ai xem vậy nhỏ
Yếu đuối đi em và khóc đi ...cô bé
Để ngày mai nắng ấm lại theo về

Cuộc đời mà được mất cũng nhiêu khê
Và tình yêu là một điều không thể thiếu
Hai chữ nợ duyên nhập nhằng nên khó hiểu
Thì buồn làm gì, nghĩ đơn giản thôi em

Hãy cười thật tươi đón ngày mới nắng lên
Tô son môi, diện váy hồng xuống phố
Người ta sẽ trầm trồ...cô nhỏ ơi xinh thế
Và cuộc đời lại đẹp phải không em?"
     },
{
        "thoId": 26,
        "tieudetho": "MUỐN SÁNG TỈNH GIẤC THẤY MÌNH KHÁC HÔM QUA",
        "tacgia": "Tâm Di",
        "urlHinhTho": "https://2.bp.blogspot.com/-6Az2STUC1_w/W3KxevVqNMI/AAAAAAAAU0M/KJlYsyB7V-wAAQwVs8L8Qh0ejgeH5QWkgCLcBGAs/s400/38936083_10208941031801405_152874078091345920_n.jpg",
        "noidungtho": "Muốn sáng tỉnh giấc ở một nơi rất mới
Chẳng có tiếng còi xe ồn ã của phố phường
Quên đi những ngày bỗng dưng mất phương hướng
Chẳng nhớ mình đã từng muộn phiền với những ngày rối ren

Muốn sáng tỉnh giấc nhìn ngắm ánh bình minh
Đứng trước biển xanh thả phiền ưu tan biến
Chiều rảo đôi chân chờ hoang hôn tắt lịm
Cảm nhận yên bình từ những điều giản đơn

Muốn sáng tỉnh giấc thấy mình khác hôm qua
Nụ cười trên môi chẳng khi nào vụt tắt
Giữ được yêu thương, không một lần đánh mất
Để thấy cuộc đời nhận – cho rất dễ dàng

Muốn sáng thức dậy biết mình cần những gì
Để lòng thôi chông chênh khi bão giông tìm đến
Để thôi ước mơ đến những điều bình dị
Vì tự bản thân đã cảm thấy đủ đầy."
     },
{
        "thoId": 25,
        "tieudetho": "KHI MỘT NGƯỜI",
        "tacgia": "Vananh Nguyen",
        "urlHinhTho": "https://2.bp.blogspot.com/-RgLCytCTUl8/W3VLWdQSW9I/AAAAAAAAU3Q/W4O4MOSH9qEj6Jk3v8RUmM-zIJess4JHACEwYBhgL/s640/39223260_2235475763349149_1542751900535881728_n.jpg",
        "noidungtho": "Khi một người không yêu một người nữa
Nước mắt rơi cũng hóa nỗi bình thường
Đã một thời gọi nhau là người thương
Mà bây giờ..nghe bờ môi đắng chát

Khi một người mang nỗi đau chồng chất
Giấu vào lòng và nở nụ cười duyên
Ánh mắt thôi trĩu nặng những ưu phiền
Có phải chăng chẳng còn gì để mất?

Khi một người..
Muốn quên đi người mình yêu thương nhất
Lại đớn đau nhung nhớ đến tận cùng
Là chẳng còn giữ được một hình dung
Mà bản thân mang nỗi sầu vô tận.

Khi một người đã thôi không vương vấn
Là biết rằng hơi ấm sắp lụi tàn
Là không còn cách nào để chọn lựa
Phải chấp nhận đến lúc..người ta đi

Khi một người khóc lệ ướt hoen mi
Mà môi vẫn cười mặc đời thay đổi..
Là lúc tình yêu chẳng còn lạc lối
Tha thiết, đau lòng..giờ hóa hư không

Khi một người từ bỏ nỗi chờ mong
Là chẳng bao giờ sai thêm lần nữa."
     },
{
        "thoId": 24,
        "tieudetho": "CÓ NHỮNG MỐI QUAN HỆ",
        "tacgia": "Huy Thọ",
        "urlHinhTho": "https://4.bp.blogspot.com/-AgWQJPbUssY/W3VOlpNuK-I/AAAAAAAAU3c/F_1hJVqNKjEy-LKXJrHwZrJXNITBfTwsQCLcBGAs/s640/39141036_662380080784200_8030462445396951040_n.jpg",
        "noidungtho": "Có những mối quan hệ không rõ ràng
Dẫu đã có lúc người ta nồng nàn nhớ
Tưởng đã thân quen nhau như là hơi thở
Rồi vội vàng quên

Có những mối quan hệ chẳng thể gọi tên
Dẫu cả hai vẫn từng đêm chuyện trò, tâm sự
Đôi lúc hạnh phúc cứ ngỡ đã trong tầm nắm giữ
Lại vụt trôi mau

Có những mối quan hệ chỉ như gió, thoảng qua nhau
Nhưng để lại nỗi đau hằn sâu rất thật
Có một mối quan hệ mà tôi chẳng bao giờ muốn mất
Người có cùng nắm chặt nó không"
     },
{
        "thoId": 23,
        "tieudetho": "VÌ CÔ ẤY MONG MANH",
        "tacgia": "Hải Thụy",
        "urlHinhTho": "https://1.bp.blogspot.com/-yOzppRU2W68/W3VQxpZdwFI/AAAAAAAAU3o/ZVLdUdEA6To_cpfryV0DN-3Tv7zD6Vp3ACLcBGAs/s640/tan_huong_noi_co_don_elle-1-e1443441797481.jpg",
        "noidungtho": "Vì cô ấy chưa quên được nỗi đau
Nên sợ một bắt đầu xong .. kết thúc
Cô sợ đêm dài riêng cô thổn thức
Người chẳng cho cô những lúc an toàn .

Vì cõi lòng cô chưa hết hoang mang
Một lần vấp ngã sẽ càng suy nghĩ
Sợ trái tim anh dối lừa, mộng mị
Sợ yêu thương chỉ đến lúc anh cần .

Không phải cô là người mãi phân vân
Nhưng cô ấy sợ thêm lần đổ vỡ
Một chữ DUYÊN chưa đủ thành chữ NỢ
Lại ôm đau lầm lỡ khép duyên mình .

Còn gì đau hơn năm tháng tuổi xanh
Yêu nồng cháy để hóa thành tiếc nuối
Còn gì đau hơn thêm lần nông nổi
Mở trái tim lần cuối để đau lòng ?

Đó là điều cô sợ, anh biết không ?"
     },
{
        "thoId": 22,
        "tieudetho": "CÓ MỘT CÁCH YÊU MÀ KHÔNG THỂ GIẬN HỜN",
        "tacgia": "Thúy Nhân",
        "urlHinhTho": "https://3.bp.blogspot.com/-sktyTf3I3hk/W3VRYyihAbI/AAAAAAAAU3w/voritIloNg4_bRQx6FyI1Ix9eD5ufz0PgCLcBGAs/s400/39120565_1788990441216408_8020497807737618432_n.jpg",
        "noidungtho": "Có một cách để ta được quyền thương
Đó chính là không làm phiền người khác
Có một cách yêu người ta mộc mạc
Được gọi là yêu thầm!

Có một người như thế suốt bao năm
Tôi muốn nói mà chưa hề dám nói
Những câu thương bình yên nằm chờ đợi
Một ngày tôi thôi nhiều nghĩ ngợi về người.

Tôi vẫn cười mỗi khi thấy người vui
Hay suy tư khi người ta tâm trạng
Người đặt chân ở đâu, tôi sẽ đi đến đó
Người cảm thấy thế nào
Tôi cần biết rõ
Vậy thôi!
 
Người vẫn là người đi ngang cuộc đời tôi
Ở lại vài giây cho tôi vài ý nghĩa
Để đến bây giờ tôi vẫn còn thấm thía
Về câu không duyên, không nợ chẳng tương phùng.

Người đã có người để người bước đi chung
Cùng nhau trải qua thanh xuân và tuổi trẻ
Cùng nhau cảm nhận những niềm vui mới mẻ
Tôi lặng lẽ một mình, mạnh mẽ trước cô đơn.

Có một cách yêu mà không thể giận hờn!"
     },
{
        "thoId": 21,
        "tieudetho": "QUÊN",
        "tacgia": "Lê Hồng Mận",
        "urlHinhTho": "https://1.bp.blogspot.com/-fFVum_fpcr8/W3VT7B7RnCI/AAAAAAAAU38/2fihdREwwcoyXSYzSYSgYeDIFYjQX85YACLcBGAs/s400/419352_349450268408381_754873284_n.jpg",
        "noidungtho": "Em đâu có lý do gì để ghét anh đâu
Chúng ta xa nhau phần nhiều vì duyên số
Ai đó bảo rằng mệnh em rất khổ
Nên chắc là... chẳng có chỗ cho những ấm êm.

Em cũng đâu có lý do gì để phải nhớ thêm
Vì đã xem là người dưng nước lả
Bước qua nhau trong vội vàng tất tả
Những vấp ngã đầu đời, đau đấy, nhưng sẽ chóng lành thôi.
 
Em đâu có lý do gì để thấy đơn côi
Cuộc sống ngắn, hạnh phúc nào phải do một người mang đến
Đã một thời em xem anh là định mệnh
Như bây giờ, có người xem em là một phần cuộc sống của họ, vậy thôi.

Ai đó bảo rằng cuộc đời bạc như vôi
Người ta phụ mình rồi vẫn an nhiên hạnh phúc
Em lại tự thấy mình sung túc
Bởi đủ đầy tha thứ, bao dung.

Đã lâu lắm rồi em chẳng còn nhớ về những ngày bước chung
Mới chợt nhận ra hết yêu không phải là hận nhau
mà là tận cùng quên lãng
Là xếp ai đó vào dĩ vãng
Lâu thật lâu trong đời, mới tản mạn nhớ quên."
     },
{
        "thoId": 20,
        "tieudetho": "MUỐN ANH THƯƠNG....DUY NHẤT TRÊN ĐỜI!",
        "tacgia": "Thu Phương",
        "urlHinhTho": "https://3.bp.blogspot.com/-pj4LF8NL-rk/W3jydCWM-YI/AAAAAAAAU7U/gs_pHOPjATkwjS1c9ud22ECX4Xp-2voVACLcBGAs/s1600/39387197_2235822723314453_2315958030857928704_n.jpg",
        "noidungtho": "Có những ngày chẳng ao ước xa xôi
Những điều viển vông, không mơ màng ảo mộng
Mọi thứ giản đơn, được bình yên cười sống
Những cơn sóng lòng cứ theo gió tan ra

Muốn được là hạt sương, tươi mới trước hiên nhà
Dịu dàng tiếng chim ca, hót hiền hoà lặng lẽ
Chẳng cần tính toan, nghĩ cuộc đời tươi trẻ
Nghêu ngao hát vài bài khi nắng sớm qua sân
 
Cũng muốn mỗi ngày hôn anh ấy một lần
Mà chẳng cần đâu, nhìn nhau thôi cũng được
Mọi ước mơ ko như mình mơ ước
Nên bình thường lại đơn giản khó quên

Biết mỗi ngày mình sẽ lại già thêm
Cũng chỉ muốn tuổi xuân qua dịu nhẹ
Cùng anh nắm tay, cứ lặng thầm như thế
Vì muốn anh thương....duy nhất trên đời!"
     },
{
        "thoId": 19,
        "tieudetho": "HOA SỮA VẪN NỒNG NÀN",
        "tacgia": "Nguyễn Công Tậu",
        "urlHinhTho": "https://2.bp.blogspot.com/-50OLpWnipsI/W3kD5ThPjfI/AAAAAAAAU7g/9ex30nMNScY-UuG3Rn9NrZgAKi7DCrJfwCLcBGAs/s1600/hoa-sua-mua-thu.jpg",
        "noidungtho": "Hoa sữa vẫn nồng nàn như độ chớm thu
Trong cái rét đầu đông khi những trận gió mùa đã kéo về ngang cửa
Ai đó vẫn lặng thinh đưa mắt nhìn ra ngoài xa... xa nữa
Nhớ... một người xa...

Hình như đã quen rồi suốt những tháng ngày qua
Khi bóng tối dần buông, màn đêm chùm lên tất cả
Phố cũng lặng thinh, chỉ còn xạc xào tiếng lá
Nỗi nhớ... lại về đây…
 
Cứ thổn thức trong tim tới độ héo gầy
Chẳng thể ngăn những dòng cảm xúc
Là bóng hình ai đang hiện lên rất thực
Ngỡ chạm được vào, rồi gió lại cuốn đi...

Phả vào mặt người những hạt mưa nhỏ li ti
Cuốn cả theo những cánh hoa một màu trắng muốt
Khẽ hứng vào tay rồi nắm chặt như sợ cái gì vụt mất
Nhưng nắm được gì, hương hoa sữa vẫn bay...

Hoa sữa nồng nàn khiến bao kẻ phải say
Màu trắng tinh khôi nhuộm màu nỗi nhớ
Thu dẫu tàn phai mà sao hoa vẫn nở
Để kẻ si tình thêm giá buốt đêm đông...
Hoa sữa ơi người biết ta nhớ hay không?"
     },
{
        "thoId": 18,
        "tieudetho": "TỰ TÌNH THÁNG 9",
        "tacgia": "ST",
        "urlHinhTho": "https://3.bp.blogspot.com/-egps859n-Fk/W4jYSTZiUwI/AAAAAAAAVRU/iPenvjHtZBYsxselVRTbpb8nf3D-EVG_QCLcBGAs/s1600/thang-9.jpg",
        "noidungtho": "Chào tháng 9 tự tình, tháng 9 yêu thương
Em bồi hồi căng lồng ngực hoa sữa
Tháng 9 của em, những đêm không ngủ
Nhớ thật nhiều là nỗi nhớ...người dưng

Nơi xa vời, anh có nhớ em không?
Có khao khát ôm trong lòng mái tóc em vương đầy hoa sữa
Em thảng mình ngỡ như người gõ cửa
Ánh mắt sâu, đôi môi ấm đón chờ...
 
Tháng 9 dịu dàng như một câu thơ
Còn e ấp trong mắt em chưa nói
Một lời thôi, chờ trái tim để ngỏ
Anh sẽ thầm thì - em bỗng run run...

Có nỗi nhớ nào nhớ anh nhiều hơn?
Em qua phố nghe môi mình mằn mặn
Gió heo may vương mắt em nhoè nước
Phố đông người em vẫn thấy cô đơn

Biết xa nhau là sẽ có giận hờn
Có nhớ thương, có buồn có tủi
Tháng 9 cho em một trời thương nhớ
Anh ở xa rồi
Tháng 9 tự tình
Mơ..."
     },
{
        "thoId": 17,
        "tieudetho": "ANH BIẾT RẰNG EM ĐANG RẤT NHỚ ANH",
        "tacgia": "Tiểu Tử HK",
        "urlHinhTho": "https://3.bp.blogspot.com/-AU7wQLV-pEI/W4jT0cBDEdI/AAAAAAAAVQ8/DrxMexbfSB4yWy0jhdG_DWAbGLLRouFQgCLcBGAs/s640/40119812_465150500665772_87035970360180736_n.jpg",
        "noidungtho": "Anh biết rằng em đang rất nhớ anh
Nhưng vẫn cố giả vờ như không biết
Trời giao mùa tháng Chín buồn da diết
Đường Sài Gòn có ướt áo em không?

Cũg sắp rồi Sài Gòn bước vào đông
Em ra đường nhớ mặc thêm áo
Phải tự lo mỗi khi trời giông bão
Em là người rất mạnh mẽ, phải không?

Chắc có lẽ phải tập quen nhớ mong
Những ngày tháng không có nhau bên cạnh
Những buổi chiều mình em đơn lạnh
Đừng để buồn vương trên mắt long lanh

Mỗi đêm về hãy nhớ gọi cho anh
Như ngày nào vẫn còn hai đứa
Rồi một ngày sẽ không xa em nữa
Tháng chín nào cũng cùng em ngắm mưa..."
     },
{
        "thoId": 16,
        "tieudetho": "CẦN",
        "tacgia": "Mưa",
        "urlHinhTho": "https://4.bp.blogspot.com/-nuOHcFN6vrQ/W4jSqbNyBhI/AAAAAAAAVQw/jAde3vq_VgojlfwlYSehPLkpkcKl4njBgCLcBGAs/s400/tumblr_oocme7VBxU1v2832wo1_1280.jpg",
        "noidungtho": "Cần một người ngồi nghe ta kể chuyện
Những buồn vui rất nhàm chán ở đời
Người nhẫn nại lặng im và tự nguyện
Nghe ta cười hay ta khóc..vậy thôi..

Cần một người đủ bao dung, độ lượng
Dìu dắt ta qua những phút yếu lòng
Ta là kẻ ngốc khờ và ngang bướng
Giữa cuộc đời đầy cạm bẫy mênh mông..

Cần một người hiểu ta trong suy nghĩ
Hiểu những câu ta chưa thốt thành lời
Người cùng ta đến chân trời góc bể..
Dẫu thác ghềnh, dẫu mưa gió, chơi vơi.."
     },
{
        "thoId": 15,
        "tieudetho": "NGỦ ĐI EM",
        "tacgia": "Huy Thọ",
        "urlHinhTho": "https://3.bp.blogspot.com/-2gPUuKVhiTs/W4jRdP9L0rI/AAAAAAAAVQk/jOHGt29sQzY-xJ2ftrrP3E4Xcrqqc4JRACLcBGAs/s400/7a1d7e2c7161274998c825b75793bf94.jpg",
        "noidungtho": "Ngủ đi em rồi ngày mai thức dậy
Sẽ thấy buồn chỉ tựa thoáng mây bay
Thôi thở than duyên với phận mỏng dày
Ai nhớ - quên cũng sẽ thành chuyện kể

Ngủ đi em, bởi ngày mai vẫn thế
Cuộc đời kia, ai cũng sống vì mình
Nên cứ cười và phải thật là xinh
Thanh xuân ngắn, đừng để mình lãng phí

Ngủ đi em, chuyện muôn đời vốn dĩ
Hợp rồi tan, đừng suy nghĩ quá nhiều
Muốn trưởng thành phải học cách tự yêu
Tự chăm sóc và học cần buông bỏ

Ngủ đi em, nỗi buồn là cơn gió
Vẫn ngàn năm phiêu lãng chốn dương trần
Ngủ thôi nào, phải yêu quý bản thân
Thương mình trước khi học thương người lạ"
     },
{
        "thoId": 14,
        "tieudetho": "EM MUỐN",
        "tacgia": "Tiểu Tử HK",
        "urlHinhTho": "https://4.bp.blogspot.com/-Ijew8dR1CU8/W4jMeK12ufI/AAAAAAAAVQY/yYrxsp0wK-cYnvLPBsG4sRdJcxCenk2lQCLcBGAs/s640/maxresdefault.jpg",
        "noidungtho": "Em muốn được anh ôm từ phía sau
Và nhẹ nhàng anh hôn lên má
Để em biết mỗi khi em gục ngã
Luôn có bờ vai cho em dựa vào

Em muốn được cùng anh ngắm những vì sao
trong mỗi đêm em thấy mình yêu đuối
Anh chẳng mắng la, chẳng lời an ủi
Ôm em vào lòng... muộn phiền thế dần vơi
 
Em muốn được làm người anh yêu suốt đời
Anh sẽ nấu những món mà em thích
Em sẽ hạnh phúc hơn cả công chúa trong chuyện cổ tích
Bởi có anh - hơn cả hoàng tử tuyệt vời

Em muốn được nắm tay anh mãi mãi thôi
Mình dắt nhau qua những mùa gió trở
Em gọi anh là chồng, anh gọi em là vợ
Đến khi nào tóc bạc răng long tình cảm vẫn mặn nồng

Hứa với em nhé có được không?"
     },
{
        "thoId": 13,
        "tieudetho": "VIẾT CHO NGƯỜI XƯA",
        "tacgia": "Huy Thọ",
        "urlHinhTho": "https://1.bp.blogspot.com/-70Uk-dZGedU/W4jGWgE_GSI/AAAAAAAAVQM/F2jevs8A5mEFSJdWwZ75T22f1nGwPKftACLcBGAs/s640/hinh-anh-y-nghia-hoa-cuc-tim-thach-thao-trong-tinh-yeu-va-cuoc-song-1.jpg",
        "noidungtho": "Tháng Chín trở về, mang theo những cơn mưa
Anh chợt chạnh lòng, người xưa giờ hạnh phúc?
Chắc cũng bởi vì tên người trong lồng ngực
Chưa một lần ngừng thôi nhắc, chẳng thể quên

Có những đêm thâu ngồi đốt thuốc bên thềm
Nỗi buồn bay lên hòa vào đêm đặc quánh
Ở phương trời xa chắc giờ này cũng lạnh
Người có còn về, cho tạnh những hanh hao
 
Em biết không, nhiều lần anh hỏi vì sao
Chuyện chúng mình chỉ có duyên không phận
Đã cùng hứa thề đến cuối đời sẽ vẫn
Tay nắm tay mà, sao lại nỡ lìa xa

Ai đó bảo anh rồi thời gian sẽ xóa nhòa
Nỗi buồn cũng qua bởi ai rồi cũng khác
Chỉ là với anh, mọi thứ giờ thấy nhạt
Vắng bóng một người mà tan nát cả trời thương

Anh vẫn tự mình ru ngủ những yêu thương
Vẫn bước vô hồn trên con đường từng hò hẹn
Đêm về, lại thả hồn vào chén
Rượu cay nồng đắng ngắt cả hồn anh

Người còn về, cho nắng lại trong xanh?"
     },
{
        "thoId": 12,
        "tieudetho": "KHI TÌNH YÊU CHIA ĐÔI",
        "tacgia": "KL",
        "urlHinhTho": "https://1.bp.blogspot.com/-vc0mG4LXrW4/W4ZFyd_rzdI/AAAAAAAAVNM/LccsxREoNJUHbSuKPWjJ4TN2GWchlS2vwCLcBGAs/s640/40236472_2247398622156863_1964196554298359808_n.jpg",
        "noidungtho": "Em Cứ tưởng...
mình không khóc đâu
Nếu một ngày kia trong tim anh có thêm người đàn bà khác
Lòng người dễ đổi thay...
sao em trách đời đen bạc.!?
Lại tự an ủi mình
khi yêu cũng cần tới sự bao dung...

Em cứ tưởng...
anh mãi bên em để đi đến tận cùng
Mọi thứ có thể đổi thay
nhưng tình yêu anh dành cho em sẽ không bao giờ thay đổi...
Vụn vỡ trong em khi biết những lời yêu xưa chỉ là gian dối...
Tự dặn lòng đừng buồn mà nước mắt cứ nhòe mi...

Em cứ tưởng...
là lẽ thường tình khi tan hợp chia ly
Sao vẫn thấy như ngàn vết dao đâm vào tim đau nhói
Khi tình yêu chia đôi...
trái tim mong manh trở nên chông chênh tù tội
Trách người vô tình...
hay trách tình yêu chúng mình chưa đủ nhiều để mãi ở cạnh nhau

Em cứ tưởng...
thời gian trôi như phương thuốc nhiệm màu
Giúp em tìm lại với chính mình và quên đi tất cả
Biết đến bao giờ...
trong tim em anh trở thành xa lạ
Để trả em về vùng trời xanh ngát những bình yên..."
     },
{
        "thoId": 11,
        "tieudetho": "VIẾT CHO CHA",
        "tacgia": "NTLA",
        "urlHinhTho": "https://3.bp.blogspot.com/-rZVazhRdkfI/W4ZEax6P4mI/AAAAAAAAVNA/hEZG_bV6MwQgHQsRvwVDcSu7B-qJcrhwQCEwYBhgL/s640/cha-con-gai-1507703410889.jpg",
        "noidungtho": "Con viết những dòng thơ cho người đàn ông vĩ đại của mình
Người đã bên con những khi con cần nhất
Người nâng con đứng lên sau mỗi lần va vấp
\"Con gái ạ! Đừng buồn, rồi con sẽ vượt qua\"

Từ khi con chào đời cất tiếng khóc oa oa
Cho đến ngày trưởng thành theo chồng sang nhà khác
Người vẫn lo lắng cho con... sợ phận gái như thân bèo trôi dạt
Liệu có trôi về nơi bến sông trong?

Nhân thế trớ trêu chẳng giống những đợi mong
Bến sông đục không giữ nổi bèo ở lại
Hai lối chia tay dở dang này mãi mãi
Người vẫn ở đây mở vòng tay rộng lượng đón con về

\"Cuộc sống dẫu mệt mỏi khó khăn cả trăm bề
Con cũng đừng vì ai mà khổ đau chịu đựng
Bố mẹ thương con nhưng con mới là người tự thoát ra cùng cực
Cứ mạnh dạn thay đổi đời mình miễn con thấy lòng vui

Hãy học cách yêu mình trước con ơi!
Con chỉ mang lại hạnh phúc cho người con thương nếu như con hạnh phúc
Còn giả như con yếu mềm suy sụp
Sức cạn rồi, lo không nổi cho mình thì còn nói cho ai

Quá khứ đã xa đừng nghĩ ngợi dông dài
Lập kế hoạch cho tương lai ngay bây giờ - hiện tại
Là phụ nữ cứ đẹp xinh rồi chút chăm con cái
Chúng mới là trái ngọt sau này của cả đời con\"

Người đàn ông vẫn lặng lẽ dần mòn
Tựa ngọn nến soi đường cho con dẫu thân mình cháy hết
Nước mắt chảy xuôi hiểu lòng người con biết
Người yêu thương con như thịt, máu, xương mình

Lời người dặn dò con tạc dạ đinh ninh
Đời thay đổi khi chính ta thay đổi.
Có người luôn ở bên như mặt trời trong đêm tối
Con vững tin cuộc sống còn bao bất ngờ đang chờ đón bước chân con"
     },
{
        "thoId": 10,
        "tieudetho": "KHÔNG HẲN LÀ QUÊN, CHỈ LÀ HẾT ĐAU RỒI",
        "tacgia": "Thúy Nhân",
        "urlHinhTho": "https://1.bp.blogspot.com/-bpiYoKGIeOo/W4ZCal-DnpI/AAAAAAAAVM0/tTPXgYlWDVoCQjLJ_xQiM-NW0CiMi74wACLcBGAs/s1600/nhung-cau-noi-hay-ve-tinh-yeu-103.jpg",
        "noidungtho": "Rồi một ngày ta sẽ gặp lại nhau
Gửi câu chào nhẹ nhàng không hối tiếc
Giữa chúng ta như chưa hề li biệt
Không đủ duyên thì biết phải thế nào!

Rồi một ngày chúng mình sẽ khát khao
Hạnh phúc trong đời không có nhau trong đó
Hạnh phúc là khi quá khứ không còn nữa
Không hẳn là quên, chỉ là hết đau rồi!
 
Rồi một ngày ta sẽ bình yên thôi
Chỉ là một cuộc đời nhiều vết tích
Lúc già rồi nhìn sẹo thời trẻ nghịch
Chẳng phải nhớ về cũng sẽ thấy rất vui?

Em chẳng còn là cô gái của anh thôi
Anh chẳng còn là chàng trai của em rồi, có phải?
Lặng lẽ quay đi khi quay đầu nhìn lại
Chỉ thấy thời gian mãi mãi ở bên mình...

Rồi thì một ngày cũng bắt buộc phải tin
Những chuyện trải qua sẽ trở thành hồi ức...
Làm thành một cuộc đời!"
     },
{
        "thoId": 9,
        "tieudetho": "LÀ TẠI EM",
        "tacgia": "Nồng Nàn Phố",
        "urlHinhTho": "https://4.bp.blogspot.com/-Xdd8ePO2ZPo/W4Y9tpbdT6I/AAAAAAAAVMo/M0LApod5PwcckbuC1PSAUqBkSZLnMChWQCLcBGAs/s640/40332158_1163580837114650_6430890232068964352_n.jpg",
        "noidungtho": "Nếu một ngày bỗng nhiên hết thương anh
Nhận ra trên đời mọi điều đều có thể
Chẳng phải anh tầm thường hay sống tệ
Mà bởi em đã có lựa chọn khác cho mình

Thấy phiền hà khi ai đó nhắc về anh
Vài kỷ niệm đáng lý dễ thương muốn ném đi không giữ nữa
Khoảnh khắc đầu tiên hôn nhau từng làm nghẹt thở
Giờ nhạt như chưa từng... thương!

Vốn dĩ cuộc đời có trăm ngàn nẻo đường
Đâu thể bắt một ai đó thương mình mãi mãi
Xin cho phép em quên hết mọi điều từng nếm trải
Cả đắng chát, ngọt ngào, mệt mỏi một thời bên anh

Dự định chưa thực hiện cùng nhau xin cứ để dành
Cho người đến sau... người sẽ nắm tay em đi đoạn đường sắp tới
Cả mái hiên nhà em cũng nhường cho họ đứng đợi
Và người anh từng hôn cũng ban cho họ thương nhớ chân thành
 
Nếu một ngày em chán lắm mong manh
Cô gái quen gục lên vai anh mặc ngoài trời ầm ì giông bão
Giờ mạnh mẽ, kiêu hãnh ôm người sau thành thạo
... Do em tráo trở hay biết sống cho mình?

Nếu một ngày chẳng còn thiết thương anh
Nghĩa là bông hoa sợ bão giông trưởng thành rồi... chắc chắn
Đừng buồn
Đừng đau
Đừng trách
Và đừng hận
Tại em tráo trở hay biết sống cho mình?"
     },
{
        "thoId": 8,
        "tieudetho": "KẺ CỐ TÌNH NHỚ",
        "tacgia": "Tiểu Tử HK",
        "urlHinhTho": "https://2.bp.blogspot.com/-URkEtGgj0R8/W4Y6bQsBYgI/AAAAAAAAVMc/WdPtHne0NboK_W1HFDrjlb5gS46ckmuIACLcBGAs/s640/40164737_674880096200865_637277179977138176_n.jpg",
        "noidungtho": "Kẻ cố tình nhớ chính là kẻ đau thương
Khi người ta không còn chung bước nữa
Thì dù có bao nhiêu lời hứa
Cũng chỉ là lời nói gió bay

Kẻ cố tình nhớ một người đã chia tay
Thì kẻ đó là người khóc nhiều nhất
Chẳng thể giấu những cảm xúc chân thật
Dù bạn bè khuyên cũng chẳng thể quên
 
Kẻ cố tình nhớ một cái tên
là kẻ đã yêu thương nhiều lắm
dù người ta đã không còn tay nắm
vẫn cầu mong hạnh phúc dành cho người

Kẻ cố tình nhớ sẽ chẳng bao giờ cười
Dù miệng vẫn nói là mình vẫn ổn
Nhưng trong lòng chứa đầy thương tổn
Ôm đồm cuộc đời
Kẻ cố tình nhớ khóc trong mơ..."
     },
{
        "thoId": 7,
        "tieudetho": "VÔ TÂM",
        "tacgia": "Ngọc Hoài Nhân",
        "urlHinhTho": "https://1.bp.blogspot.com/-sqFUWfmbN4Q/W4J-GV-PFSI/AAAAAAAAVHc/t1ZX6nXLnSATkxwJdTXkCLmj8u12-_OYQCLcBGAs/s640/33737850101_7835879187_b.jpg",
        "noidungtho": "Mình biết phải làm sao trước những hững hờ này
Đã từng rất ân cần giờ trở thành lạnh nhạt
Bởi trong lòng người ta có một \"người ta\" khác
Hay mình thương quá nhiều nên họ chẳng nâng niu…

Mình biết phải làm sao cho hết những buổi chiều
Những nỗi nhớ vào đêm dần trở nên quay quắt
Một cái tên rất quen, một dáng hình, gương mặt
Một giấc ngủ rất dài chưa chắc đã bình yên.

Mình biết phải làm sao cho vơi bớt muộn phiền
Chỉ muốn thương một người và cùng đi đến cuối
Chân thành để dẫu sao cũng không hề tiếc nuối
Rồi thì vẫn ngậm ngùi trước tất cả dửng dưng.
 
Mình biết làm gì khi ở giữa những lưng chừng
Có thể nào bỏ buông và dặn lòng đừng nhớ?
Nhưng mà mất người ta thực sự mình… rất sợ
Nhưng mà ngay bây giờ
mình cảm thấy cô đơn!

Ở cạnh một con người mà chẳng khác gì hơn
Vào những lúc rất buồn cũng một mình mình biết
Người ta đâu có cần
Người ta đâu tha thiết
Chỉ có một mình mình mải miết giữ \"tình yêu\"…

Cạnh một người vô tâm là phải đớn đau nhiều?"
     },
{
        "thoId": 6,
        "tieudetho": "MÙA VU LAN",
        "tacgia": "Tiểu Tử HK",
        "urlHinhTho": "https://2.bp.blogspot.com/-N1D_t_7n5oI/W4C3nbUa0GI/AAAAAAAAVFk/mD4KQjjREuMyKY8mkPtBUGURjo_payrxgCLcBGAs/s1600/hqdefault.jpg",
        "noidungtho": "Ta đã sống và yêu người điên dại
Bây lâu nay quên hai đấng sinh thành
Trở về nhà sau những lần thất bại
Giọt lệ nhòa trên mái tóc thôi xanh

Ta đã khóc vì người vô số kể
Nhưng mẹ cha thì mới chỉ lần đầu
Đã trải qua thăng trầm chuyện dâu bể
Tháng Tám buồn theo những giọt mưa Ngâu
 
Ta đã biết mình là người bất hiếu
Mùa Vu Lan tạ tội cũng không tròn
Nhờ ơn trên, đấng sinh thành thấu hiểu
Chưa một lần trách móc, mắng la con...

Ta may mắn khi mùa vu Lan tới
Ngực trái ta vẫn cài được hoa hồng
Ta biết rằng bấy lâu nay sống vội
Quên một lời \"Bố mẹ có khỏe không?\""
     },
{
        "thoId": 5,
        "tieudetho": "THÁNG 8",
        "tacgia": "Vũ",
        "urlHinhTho": "https://4.bp.blogspot.com/-nXJJaekL7oc/W3v7LdFHwOI/AAAAAAAAU-8/07SXN3QtieAsPewgatakxJnpgbLi0pHsACLcBGAs/s1600/hoa59-4143-139668445420150312032046.1188520.jpg",
        "noidungtho": "Tháng Tám về con phố bỗng yêu mưa
Trút hết những tâm vào một người xa lạ
Từ nơi nào đó đến đây chưa biết điều gì cả
Cung đường mới, người dưng, bao vất vả cứ theo về

Tháng Tám về mà nắng vẫn ngủ mê
Tỉnh dậy được chút thôi rồi ươm vàng một chút
Con đường lạ thành quen sau đôi lần dại dột
Đi lạc giữa phố buồn, đi cũng một mình thôi
 
Tháng Tám về phố cũ ở một nơi
Người không còn ở đây phố liền thay áo mới
Một người ở nơi xa vùng trời cao vời vợi
Đợi nắng tắt, mưa dừng, chỉ biết đợi màn đêm

Tháng Tám về mà nhung nhớ triền miên?
Một phố cũ, người quen, một duyên tình đã cũ
chỉ biết gửi yêu thương vào những điều ấp ủ
Gắng ôm lấy niềm đau và nhắn nhủ yên bình

Tháng Tám về mưa buồn, ai đó cũng lặng thinh…"
     },
{
        "thoId": 4,
        "tieudetho": "HÃY TỰA VÀO VAI EM!",
        "tacgia": "Tim Buon Don Coi",
        "urlHinhTho": "https://3.bp.blogspot.com/-9TVkgoVBzAY/W3v2RO7WZnI/AAAAAAAAU-w/EQpUDKxYFlgSX8HORvygsZ8wYsDBnbb-ACLcBGAs/s640/cute-toy-bear-wallpaper-44440-45565-hd-wallpapers.jpg",
        "noidungtho": "Mệt mỏi rồi hãy tựa vào vai em
Giông tố sẽ ngừng bên ngoài cánh cửa
Anh về đây, mình cùng nhen bếp lửa
Sưởi ấm nhau khi gió rét trở mùa

Bận lòng gì bao mất được hơn thua
Đau đớn chi những niềm đau dĩ vãng
Hà cớ gì bức tim thành chai sạn
Kỷ niệm vỡ tan sao vá được lành?
 
Những lúc mệt nhoài, mỏi gối, chùn chân
Xin hãy tìm về với em anh nhé!
Em vẫn chờ… chờ anh trong lặng lẽ
Dẫu tháng năm làm phai dấu xuân thì

Anh có về, xin ở lại đừng đi!
Con tim tình si đập vì anh tha thiết
Ngọn lửa tình yêu nếu không là bất diệt
Thì xin một lần, em được chết vì ai…"
     },
{
        "thoId": 3,
        "tieudetho": "EM HẠNH PHÚC RỒI, SAU KHI CHIA TAY ANH",
        "tacgia": "Yến Yến",
        "urlHinhTho": "https://4.bp.blogspot.com/-OQuxC6coD8E/W3kmzgIsGFI/AAAAAAAAU8E/907siUiekvUix-fcJQGgOxex0-Dy26AjgCLcBGAs/s640/39240192_2235822806647778_3108589804338544640_n.jpg",
        "noidungtho": "Ngày mình gặp lại nhau
Em đã không còn đau
Cũng chẳng còn buồn nữa
Về tháng ngày không anh

Em cũng không thấy lạnh
Mỗi khi gió đông về
Lòng đã thôi bộn bề
Về những ngày xưa cũ.

Lũ bạn em vẫn thế
Trò chuyện mỗi xế chiều
Nhiều điều hay được kể
Về những ngày ấu thơ.
 
Em không còn bơ vơ
Cũng đã thôi mơ mộng
Em không còn hồng hộc
Bước chạy tìm đến anh.

Em là em hiện tại
Hạnh phúc và bình yên
Em chăm chỉ kiếm tiền
Yêu thương mình mãi mãi
Em đã thôi không ngại
Sống cuộc sống độc thân."
     },
{
        "thoId": 2,
        "tieudetho": "EM VỀ LẠI RỒI MÙA THU ƠI",
        "tacgia": "Dandelion",
        "urlHinhTho": "https://4.bp.blogspot.com/-HJAcFoY9AEU/W3kG2qc11jI/AAAAAAAAU74/i5RHNCsNSHEwK_7fJSycsF_cKnfPRpMSwCLcBGAs/s1600/mo-thay-hoa-sen-giai-ma.jpg",
        "noidungtho": "Em lại về rồi, cô bé thu ơi!
Vẫn là dáng em vẫn tính tình hờn dỗi
Bông sen trắng cánh rơi đài kết vội
Khóa mùa tình khóa hương sắc hạ đi

Này thu ơi trong ngọn gió thầm thì
Trong nắng hanh hao em nói gì đấy nhỉ
Mà ấm áp lan man trong suy nghĩ
Mà ngọt ngào lạnh lẽo đến cô đơn
 
Này thu ơi sao em mãi giận hờn
Để cơn mưa trượt đường trơn nỗi nhớ
Còn hoa sữa phai hương trong hơi thở
Để nghẹn ngào ghé mở những dở dang

Em lại về trong nỗi nhớ anh mang
Anh nhớ em nhớ mùa thu đỏng đảnh
Nhớ hoa sữa nhớ cơn mưa chẳng tạnh
Em về rồi, thu lạnh, anh đón em!"
     },
{
        "thoId": 1,
        "tieudetho": "GIÓ MÙA VỀ ANH LỠ HẸN MÙA THU",
        "tacgia": "Rào Cản",
        "urlHinhTho": "https://4.bp.blogspot.com/-V5WKiPIdWgs/W3kFqCBoToI/AAAAAAAAU7s/nFbAS8USKSU-Xgt143dJgnnRtypRC360ACLcBGAs/s640/goodwp.com_30259.jpg",
        "noidungtho": "Lại một lần anh nỡ hẹn với mùa thu
Mùa gió heo may mơ màng khe khẽ thổi
Em có lạnh không, những hôm nào về tối?
Vẫn chỉ một mình sao cố chấp chối từ anh.

Lại một lần anh thấy quá mong manh
Nhìn em quay đi, rất gần thôi, ngay cạnh
Cơn mưa sớm vô tình chưa kịp tạnh
Chẳng nói câu gì, tâm trí rối quẩn quanh.

Lại một lần phải xét lại chính anh
Sao cứ để tuổi xanh trôi mãi thế
Anh vẫn chờ em biết đâu rồi có thể
Tay đan tay hai đứa một câu thề."
     }
	]
}
